risc.vcd
$date
	Wed Jan 21 00:52:55 2026
$end
$version
	Icarus Verilog
$end
$timescale
	1ns
$end
$scope module risc_TB $end
$var reg 1 ! clk $end
$var reg 1 " rst $end
$scope module CPU $end
$var wire 1 ! clk $end
$var wire 1 " rst $end
$var wire 7 # funct7 [6:0] $end
$var wire 3 $ funct3 [2:0] $end
$var wire 1 % WD3_SrcD $end
$var wire 1 & StallF $end
$var wire 1 ' StallD $end
$var wire 5 ( Rs2E [4:0] $end
$var wire 5 ) Rs1E [4:0] $end
$var wire 2 * ResultSrcE [1:0] $end
$var wire 2 + ResultSrcD [1:0] $end
$var wire 1 , RegWriteW $end
$var wire 1 - RegWriteM $end
$var wire 1 . RegWriteD $end
$var wire 5 / RdW [4:0] $end
$var wire 5 0 RdM [4:0] $end
$var wire 5 1 RdE [4:0] $end
$var wire 2 2 PCSrcE [1:0] $end
$var wire 7 3 OP [6:0] $end
$var wire 1 4 MemWriteD $end
$var wire 1 5 JumpD $end
$var wire 3 6 Imm_SrcD [2:0] $end
$var wire 2 7 ForwardBE [1:0] $end
$var wire 2 8 ForwardAE [1:0] $end
$var wire 1 9 FlushE $end
$var wire 1 : FlushD $end
$var wire 1 ; BranchD $end
$var wire 1 < ALUSrcD $end
$var wire 4 = ALUControlD [3:0] $end
$var wire 5 > A2 [4:0] $end
$var wire 5 ? A1 [4:0] $end
$scope module CU $end
$var wire 7 @ funct7 [6:0] $end
$var wire 3 A funct3 [2:0] $end
$var wire 7 B OP [6:0] $end
$var reg 4 C ALUControlD [3:0] $end
$var reg 2 D ALUOp [1:0] $end
$var reg 1 < ALUSrcD $end
$var reg 1 ; BranchD $end
$var reg 3 E Imm_SrcD [2:0] $end
$var reg 1 5 JumpD $end
$var reg 1 4 MemWriteD $end
$var reg 1 . RegWriteD $end
$var reg 2 F ResultSrcD [1:0] $end
$var reg 1 % WD3_SrcD $end
$upscope $end
$scope module DP $end
$var wire 4 G ALUControlD [3:0] $end
$var wire 1 < ALUSrcD $end
$var wire 1 ; BranchD $end
$var wire 3 H Imm_SrcD [2:0] $end
$var wire 1 5 JumpD $end
$var wire 1 4 MemWriteD $end
$var wire 1 . RegWriteD $end
$var wire 2 I ResultSrcD [1:0] $end
$var wire 1 % WD3_SrcD $end
$var wire 1 ! clk $end
$var wire 1 " rst $end
$var wire 32 J instructionD [31:0] $end
$var wire 32 K instruction [31:0] $end
$var wire 7 L funct7 [6:0] $end
$var wire 3 M funct3E [2:0] $end
$var wire 3 N funct3 [2:0] $end
$var wire 1 O ZeroE $end
$var wire 64 P WriteDataM [63:0] $end
$var wire 64 Q WriteDataE [63:0] $end
$var wire 1 & StallF $end
$var wire 1 ' StallD $end
$var wire 64 R SrcBE [63:0] $end
$var wire 64 S SrcAE [63:0] $end
$var wire 5 T Rs2E [4:0] $end
$var wire 5 U Rs1E [4:0] $end
$var wire 64 V ResultW [63:0] $end
$var wire 2 W ResultSrcW [1:0] $end
$var wire 2 X ResultSrcM [1:0] $end
$var wire 2 Y ResultSrcE [1:0] $end
$var wire 1 , RegWriteW $end
$var wire 1 - RegWriteM $end
$var wire 1 Z RegWriteE $end
$var wire 64 [ ReadDataW [63:0] $end
$var wire 64 \ ReadData [63:0] $end
$var wire 5 ] RdW [4:0] $end
$var wire 5 ^ RdM [4:0] $end
$var wire 5 _ RdE [4:0] $end
$var wire 64 ` RD2E [63:0] $end
$var wire 64 a RD2 [63:0] $end
$var wire 64 b RD1E [63:0] $end
$var wire 64 c RD1 [63:0] $end
$var wire 64 d PCnext [63:0] $end
$var wire 64 e PCTargetE [63:0] $end
$var wire 2 f PCSrcE [1:0] $end
$var wire 64 g PCPlus4W [63:0] $end
$var wire 64 h PCPlus4M [63:0] $end
$var wire 64 i PCPlus4F [63:0] $end
$var wire 64 j PCPlus4E [63:0] $end
$var wire 64 k PCPlus4D [63:0] $end
$var wire 64 l PCF [63:0] $end
$var wire 64 m PCE [63:0] $end
$var wire 64 n PCD [63:0] $end
$var wire 7 o OPE [6:0] $end
$var wire 7 p OP [6:0] $end
$var wire 1 q MemWriteM $end
$var wire 1 r MemWriteE $end
$var wire 1 s JumpE $end
$var wire 25 t Imm [24:0] $end
$var wire 2 u ForwardBE [1:0] $end
$var wire 2 v ForwardAE [1:0] $end
$var wire 1 9 FlushE $end
$var wire 1 : FlushD $end
$var wire 64 w ExtImmW [63:0] $end
$var wire 64 x ExtImmM [63:0] $end
$var wire 64 y ExtImmE [63:0] $end
$var wire 64 z ExtImmD [63:0] $end
$var wire 1 { BranchE $end
$var wire 1 | ALUSrcE $end
$var wire 64 } ALUResultW [63:0] $end
$var wire 64 ~ ALUResultM [63:0] $end
$var wire 64 !" ALUResult [63:0] $end
$var wire 4 "" ALUControlE [3:0] $end
$var wire 5 #" A3 [4:0] $end
$var wire 5 $" A2 [4:0] $end
$var wire 5 %" A1 [4:0] $end
$var reg 2 &" PCSrcE_r [1:0] $end
$scope module aluuuu $end
$var wire 64 '" ALUResult [63:0] $end
$var wire 3 (" funct3E [2:0] $end
$var wire 64 )" SrcBE [63:0] $end
$var wire 64 *" SrcAE [63:0] $end
$var wire 1 { BranchE $end
$var wire 4 +" ALUControlE [3:0] $end
$var reg 64 ," ALU_Result [63:0] $end
$var reg 1 O ZeroE $end
$upscope $end
$scope module datameme $end
$var wire 1 ! clk $end
$var wire 1 " rst $end
$var wire 1 q WE $end
$var wire 64 -" WD [63:0] $end
$var wire 64 ." A [63:0] $end
$var reg 64 /" ReadData [63:0] $end
$upscope $end
$scope module fetch $end
$var wire 32 0" instructionD [31:0] $end
$var reg 5 1" A1 [4:0] $end
$var reg 5 2" A2 [4:0] $end
$var reg 5 3" A3 [4:0] $end
$var reg 25 4" Imm [24:0] $end
$var reg 7 5" OP [6:0] $end
$var reg 3 6" funct3 [2:0] $end
$var reg 7 7" funct7 [6:0] $end
$upscope $end
$scope module instmeme $end
$var wire 64 8" PCF [63:0] $end
$var reg 32 9" instruction [31:0] $end
$upscope $end
$scope module lay1 $end
$var wire 1 ! clk $end
$var wire 32 :" instruction [31:0] $end
$var wire 1 " rst $end
$var wire 1 ' StallD $end
$var wire 64 ;" PCPlus4F [63:0] $end
$var wire 64 <" PCF [63:0] $end
$var wire 1 : FlushD $end
$var reg 64 =" PCD [63:0] $end
$var reg 64 >" PCPlus4D [63:0] $end
$var reg 32 ?" instructionD [31:0] $end
$upscope $end
$scope module lay2 $end
$var wire 5 @" A1 [4:0] $end
$var wire 5 A" A2 [4:0] $end
$var wire 5 B" A3 [4:0] $end
$var wire 4 C" ALUControlD [3:0] $end
$var wire 1 < ALUSrcD $end
$var wire 1 ; BranchD $end
$var wire 1 5 JumpD $end
$var wire 1 4 MemWriteD $end
$var wire 7 D" OPD [6:0] $end
$var wire 64 E" PCD [63:0] $end
$var wire 64 F" PCPlus4D [63:0] $end
$var wire 1 . RegWriteD $end
$var wire 2 G" ResultSrcD [1:0] $end
$var wire 1 ! clk $end
$var wire 3 H" funct3 [2:0] $end
$var wire 1 " rst $end
$var wire 64 I" RD2 [63:0] $end
$var wire 64 J" RD1 [63:0] $end
$var wire 1 9 FlushE $end
$var wire 64 K" ExtImmD [63:0] $end
$var reg 4 L" ALUControlE [3:0] $end
$var reg 1 | ALUSrcE $end
$var reg 1 { BranchE $end
$var reg 64 M" ExtImmE [63:0] $end
$var reg 1 s JumpE $end
$var reg 1 r MemWriteE $end
$var reg 7 N" OPE [6:0] $end
$var reg 64 O" PCE [63:0] $end
$var reg 64 P" PCPlus4E [63:0] $end
$var reg 64 Q" RD1E [63:0] $end
$var reg 64 R" RD2E [63:0] $end
$var reg 5 S" RdE [4:0] $end
$var reg 1 Z RegWriteE $end
$var reg 2 T" ResultSrcE [1:0] $end
$var reg 5 U" Rs1E [4:0] $end
$var reg 5 V" Rs2E [4:0] $end
$var reg 3 W" funct3E [2:0] $end
$upscope $end
$scope module lay3 $end
$var wire 64 X" ALUResult [63:0] $end
$var wire 64 Y" ExtImmE [63:0] $end
$var wire 1 r MemWriteE $end
$var wire 64 Z" PCPlus4E [63:0] $end
$var wire 5 [" RdE [4:0] $end
$var wire 1 Z RegWriteE $end
$var wire 2 \" ResultSrcE [1:0] $end
$var wire 1 ! clk $end
$var wire 1 " rst $end
$var wire 64 ]" WriteDataE [63:0] $end
$var reg 64 ^" ALUResultM [63:0] $end
$var reg 64 _" ExtImmM [63:0] $end
$var reg 1 q MemWriteM $end
$var reg 64 `" PCPlus4M [63:0] $end
$var reg 5 a" RdM [4:0] $end
$var reg 1 - RegWriteM $end
$var reg 2 b" ResultSrcM [1:0] $end
$var reg 64 c" WriteDataM [63:0] $end
$upscope $end
$scope module lay4 $end
$var wire 64 d" ALUResultM [63:0] $end
$var wire 64 e" ExtImmM [63:0] $end
$var wire 64 f" PCPlus4M [63:0] $end
$var wire 5 g" RdM [4:0] $end
$var wire 64 h" ReadData [63:0] $end
$var wire 1 - RegWriteM $end
$var wire 2 i" ResultSrcM [1:0] $end
$var wire 1 ! clk $end
$var wire 1 " rst $end
$var reg 64 j" ALUResultW [63:0] $end
$var reg 64 k" ExtImmW [63:0] $end
$var reg 64 l" PCPlus4W [63:0] $end
$var reg 5 m" RdW [4:0] $end
$var reg 64 n" ReadDataW [63:0] $end
$var reg 1 , RegWriteW $end
$var reg 2 o" ResultSrcW [1:0] $end
$upscope $end
$scope module muxa $end
$var wire 64 p" ALUResultM [63:0] $end
$var wire 64 q" RD1E [63:0] $end
$var wire 64 r" SrcAE [63:0] $end
$var wire 64 s" ResultW [63:0] $end
$var wire 2 t" ForwardAE [1:0] $end
$upscope $end
$scope module muxb1 $end
$var wire 64 u" ALUResultM [63:0] $end
$var wire 64 v" RD2E [63:0] $end
$var wire 64 w" WriteDataE [63:0] $end
$var wire 64 x" ResultW [63:0] $end
$var wire 2 y" ForwardBE [1:0] $end
$upscope $end
$scope module muxb2 $end
$var wire 1 | ALUSrcE $end
$var wire 64 z" ExtImmE [63:0] $end
$var wire 64 {" WriteDataE [63:0] $end
$var wire 64 |" SrcBE [63:0] $end
$upscope $end
$scope module muxpc $end
$var wire 64 }" ALUResultM [63:0] $end
$var wire 2 ~" PCSrcE [1:0] $end
$var wire 64 !# PCnext [63:0] $end
$var wire 64 "# PCTargetE [63:0] $end
$var wire 64 ## PCPlus4F [63:0] $end
$upscope $end
$scope module pc4add $end
$var wire 64 $# PCPlus4F [63:0] $end
$var wire 64 %# PCF [63:0] $end
$upscope $end
$scope module pcgen $end
$var wire 64 &# PCnext [63:0] $end
$var wire 1 ! clk $end
$var wire 1 " rst $end
$var wire 1 & StallF $end
$var reg 64 '# PCF [63:0] $end
$upscope $end
$scope module pcimmadd $end
$var wire 64 (# ExtImmE [63:0] $end
$var wire 64 )# PCE [63:0] $end
$var wire 64 *# PCTargetE [63:0] $end
$upscope $end
$scope module regf $end
$var wire 5 +# A1 [4:0] $end
$var wire 5 ,# A2 [4:0] $end
$var wire 5 -# A3 [4:0] $end
$var wire 1 , WE3 $end
$var wire 1 ! clk $end
$var wire 1 " rst $end
$var wire 64 .# WD3 [63:0] $end
$var reg 64 /# RD1 [63:0] $end
$var reg 64 0# RD2 [63:0] $end
$var integer 32 1# i [31:0] $end
$upscope $end
$scope module resmux $end
$var wire 64 2# ALUResultW [63:0] $end
$var wire 64 3# ExtImmW [63:0] $end
$var wire 64 4# PCPlus4W [63:0] $end
$var wire 64 5# ReadDataW [63:0] $end
$var wire 2 6# ResultSrcW [1:0] $end
$var wire 64 7# ResultW [63:0] $end
$upscope $end
$scope module siext $end
$var wire 25 8# Imm [24:0] $end
$var wire 3 9# Imm_SrcD [2:0] $end
$var reg 64 :# ExtImmD [63:0] $end
$upscope $end
$upscope $end
$scope module HU $end
$var wire 5 ;# A1 [4:0] $end
$var wire 5 <# A2 [4:0] $end
$var wire 2 =# PCSrcE [1:0] $end
$var wire 5 ># RdE [4:0] $end
$var wire 5 ?# RdM [4:0] $end
$var wire 5 @# RdW [4:0] $end
$var wire 1 - RegWriteM $end
$var wire 1 , RegWriteW $end
$var wire 2 A# ResultSrcE [1:0] $end
$var wire 5 B# Rs1E [4:0] $end
$var wire 5 C# Rs2E [4:0] $end
$var wire 1 ! clk $end
$var reg 1 : FlushD $end
$var reg 1 9 FlushE $end
$var reg 2 D# ForwardAE [1:0] $end
$var reg 2 E# ForwardBE [1:0] $end
$var reg 1 ' StallD $end
$var reg 1 & StallF $end
$var reg 1 F# lwStall $end
$upscope $end
$upscope $end
$scope task check_reg $end
$var reg 64 G# actual [63:0] $end
$var reg 64 H# expected [63:0] $end
$var integer 32 I# regnum [31:0] $end
$upscope $end
$upscope $end
$enddefinitions $end
#0
$dumpvars
b0 I#
bx H#
bx G#
xF#
bx E#
bx D#
bx C#
bx B#
bx A#
bx @#
bx ?#
bx >#
bx =#
bx <#
bx ;#
bx :#
bx 9#
bx 8#
bx 7#
bx 6#
bx 5#
bx 4#
bx 3#
bx 2#
bx 1#
bx 0#
bx /#
bx .#
bx -#
bx ,#
bx +#
bx *#
bx )#
bx (#
bx '#
bx &#
bx %#
bx $#
bx ##
bx "#
bx !#
bx ~"
bx }"
bx |"
bx {"
bx z"
bx y"
bx x"
bx w"
bx v"
bx u"
bx t"
bx s"
bx r"
bx q"
bx p"
bx o"
bx n"
bx m"
bx l"
bx k"
bx j"
bx i"
bx h"
bx g"
bx f"
bx e"
bx d"
bx c"
bx b"
bx a"
bx `"
bx _"
bx ^"
bx ]"
bx \"
bx ["
bx Z"
bx Y"
bx X"
bx W"
bx V"
bx U"
bx T"
bx S"
bx R"
bx Q"
bx P"
bx O"
bx N"
bx M"
bx L"
bx K"
bx J"
bx I"
bx H"
bx G"
bx F"
bx E"
bx D"
bx C"
bx B"
bx A"
bx @"
bx ?"
bx >"
bx ="
bx <"
bx ;"
bx :"
bx 9"
bx 8"
bx 7"
bx 6"
bx 5"
bx 4"
bx 3"
bx 2"
bx 1"
bx 0"
bx /"
bx ."
bx -"
bx ,"
bx +"
bx *"
bx )"
bx ("
bx '"
bx &"
bx %"
bx $"
bx #"
bx ""
bx !"
bx ~
bx }
x|
x{
bx z
bx y
bx x
bx w
bx v
bx u
bx t
xs
xr
xq
bx p
bx o
bx n
bx m
bx l
bx k
bx j
bx i
bx h
bx g
bx f
bx e
bx d
bx c
bx b
bx a
bx `
bx _
bx ^
bx ]
bx \
bx [
xZ
bx Y
bx X
bx W
bx V
bx U
bx T
bx S
bx R
bx Q
bx P
xO
bx N
bx M
bx L
bx K
bx J
bx I
bx H
bx G
bx F
bx E
bx D
bx C
bx B
bx A
bx @
bx ?
bx >
bx =
x<
x;
x:
x9
bx 8
bx 7
bx 6
x5
x4
bx 3
bx 2
bx 1
bx 0
bx /
x.
x-
x,
bx +
bx *
bx )
bx (
x'
x&
x%
bx $
bx #
1"
0!
$end
#10
b0 z
b0 K"
b0 :#
b0 =
b0 C
b0 G
b0 C"
b0 D
0%
b0 6
b0 E
b0 H
b0 9#
b0 +
b0 F
b0 I
b0 G"
0<
05
0;
04
0.
b0 a
b0 I"
b0 0#
b0 c
b0 J"
b0 /#
b0 #
b0 @
b0 L
b0 7"
b0 t
b0 4"
b0 8#
b0 $
b0 A
b0 N
b0 6"
b0 H"
b0 3
b0 B
b0 p
b0 5"
b0 D"
b0 #"
b0 3"
b0 B"
b0 >
b0 $"
b0 2"
b0 A"
b0 ,#
b0 <#
b0 ?
b0 %"
b0 1"
b0 @"
b0 +#
b0 ;#
0:
b0 !"
b0 '"
b0 X"
b0 ,"
b0 R
b0 )"
b0 |"
b0 2
b0 f
b0 =#
b10100000000000010010011 K
b10100000000000010010011 9"
b10100000000000010010011 :"
b0 Q
b0 ]"
b0 w"
b0 {"
b0 S
b0 *"
b0 r"
09
0'
0&
0F#
0O
b101 \
b101 /"
b101 h"
b0 7
b0 u
b0 y"
b0 E#
b0 8
b0 v
b0 t"
b0 D#
b0 V
b0 s"
b0 x"
b0 .#
b0 7#
b100 d
b100 !#
b100 &#
b0 k
b0 >"
b0 F"
b0 J
b0 0"
b0 ?"
b0 n
b0 ="
b0 E"
b100 i
b100 ;"
b100 ##
b100 $#
b0 l
b0 8"
b0 <"
b0 %#
b0 '#
b0 o
b0 N"
b0 (
b0 T
b0 V"
b0 C#
b0 )
b0 U
b0 U"
b0 B#
b0 1
b0 _
b0 S"
b0 ["
b0 >#
b0 M
b0 ("
b0 W"
b0 `
b0 R"
b0 v"
b0 b
b0 Q"
b0 q"
b0 j
b0 P"
b0 Z"
b0 e
b0 "#
b0 *#
b0 y
b0 M"
b0 Y"
b0 z"
b0 (#
b0 m
b0 O"
b0 )#
b0 ""
b0 +"
b0 L"
b0 *
b0 Y
b0 T"
b0 \"
b0 A#
0|
0{
0s
0r
0Z
b0 x
b0 _"
b0 e"
b0 h
b0 `"
b0 f"
b0 0
b0 ^
b0 a"
b0 g"
b0 ?#
b0 P
b0 -"
b0 c"
b0 ~
b0 ."
b0 ^"
b0 d"
b0 p"
b0 u"
b0 }"
b0 X
b0 b"
b0 i"
0q
0-
b0 w
b0 k"
b0 3#
0,
b0 W
b0 o"
b0 6#
b0 /
b0 ]
b0 m"
b0 -#
b0 @#
b0 g
b0 l"
b0 4#
b0 [
b0 n"
b0 5#
b0 }
b0 j"
b0 2#
b0 &"
b0 ~"
b100000 1#
1!
#20
0!
#30
b100000 1#
1!
#40
0!
#50
b101 z
b101 K"
b101 :#
b1 D
1<
1.
b1010000000000001 t
b1010000000000001 4"
b1010000000000001 8#
b10011 3
b10011 B
b10011 p
b10011 5"
b10011 D"
b1 #"
b1 3"
b1 B"
b101 >
b101 $"
b101 2"
b101 A"
b101 ,#
b101 <#
b1000 d
b1000 !#
b1000 &#
b1100000000000100010011 K
b1100000000000100010011 9"
b1100000000000100010011 :"
b100 k
b100 >"
b100 F"
b10100000000000010010011 J
b10100000000000010010011 0"
b10100000000000010010011 ?"
b1000 i
b1000 ;"
b1000 ##
b1000 $#
b100 l
b100 8"
b100 <"
b100 %#
b100 '#
b101 [
b101 n"
b101 5#
1!
0"
#60
0!
#70
b11 z
b11 K"
b11 :#
b110000000000010 t
b110000000000010 4"
b110000000000010 8#
b10 #"
b10 3"
b10 B"
b11 >
b11 $"
b11 2"
b11 A"
b11 ,#
b11 <#
b101 !"
b101 '"
b101 X"
b101 ,"
b101 R
b101 )"
b101 |"
b1100 d
b1100 !#
b1100 &#
b1000001000001010000110110011 K
b1000001000001010000110110011 9"
b1000001000001010000110110011 :"
b10011 o
b10011 N"
b101 (
b101 T
b101 V"
b101 C#
b1 1
b1 _
b1 S"
b1 ["
b1 >#
b100 j
b100 P"
b100 Z"
b101 e
b101 "#
b101 *#
b101 y
b101 M"
b101 Y"
b101 z"
b101 (#
1|
1Z
b1100 i
b1100 ;"
b1100 ##
b1100 $#
b1000 l
b1000 8"
b1000 <"
b1000 %#
b1000 '#
b1000 k
b1000 >"
b1000 F"
b100 n
b100 ="
b100 E"
b1100000000000100010011 J
b1100000000000100010011 0"
b1100000000000100010011 ?"
1!
#80
0!
#90
b10000010 z
b10000010 K"
b10000010 :#
b1000 =
b1000 C
b1000 G
b1000 C"
b0 D
0<
1.
b100 #
b100 @
b100 L
b100 7"
b100000100000101000011 t
b100000100000101000011 4"
b100000100000101000011 8#
b10 $
b10 A
b10 N
b10 6"
b10 H"
b110011 3
b110011 B
b110011 p
b110011 5"
b110011 D"
b11 #"
b11 3"
b11 B"
b10 >
b10 $"
b10 2"
b10 A"
b10 ,#
b10 <#
b1 ?
b1 %"
b1 1"
b1 @"
b1 +#
b1 ;#
b11 !"
b11 '"
b11 X"
b11 ,"
b10000 d
b10000 !#
b10000 &#
b1000001000001100001000110011 K
b1000001000001100001000110011 9"
b1000001000001100001000110011 :"
b11 R
b11 )"
b11 |"
b1100 k
b1100 >"
b1100 F"
b1000 n
b1000 ="
b1000 E"
b1000001000001010000110110011 J
b1000001000001010000110110011 0"
b1000001000001010000110110011 ?"
b10000 i
b10000 ;"
b10000 ##
b10000 $#
b1100 l
b1100 8"
b1100 <"
b1100 %#
b1100 '#
b11 (
b11 T
b11 V"
b11 C#
b10 1
b10 _
b10 S"
b10 ["
b10 >#
b1000 j
b1000 P"
b1000 Z"
b11 y
b11 M"
b11 Y"
b11 z"
b11 (#
b111 e
b111 "#
b111 *#
b100 m
b100 O"
b100 )#
b101 x
b101 _"
b101 e"
b100 h
b100 `"
b100 f"
b1 0
b1 ^
b1 a"
b1 g"
b1 ?#
b101 ~
b101 ."
b101 ^"
b101 d"
b101 p"
b101 u"
b101 }"
1-
1!
#100
0!
#110
b1001 =
b1001 C
b1001 G
b1001 C"
b100000100000110000100 t
b100000100000110000100 4"
b100000100000110000100 8#
b100 $
b100 A
b100 N
b100 6"
b100 H"
b100 #"
b100 3"
b100 B"
b101 S
b101 *"
b101 r"
b11 Q
b11 ]"
b11 w"
b11 {"
b101 c
b101 J"
b101 /#
b101 V
b101 s"
b101 x"
b101 .#
b101 7#
b10 7
b10 u
b10 y"
b10 E#
b1 8
b1 v
b1 t"
b1 D#
b1011 !"
b1011 '"
b1011 X"
b1011 ,"
b11 R
b11 )"
b11 |"
b10100 d
b10100 !#
b10100 &#
b1000001000001110001010110011 K
b1000001000001110001010110011 9"
b1000001000001110001010110011 :"
b101 w
b101 k"
b101 3#
1,
b1 /
b1 ]
b1 m"
b1 -#
b1 @#
b100 g
b100 l"
b100 4#
b101 }
b101 j"
b101 2#
b11 x
b11 _"
b11 e"
b1000 h
b1000 `"
b1000 f"
b10 0
b10 ^
b10 a"
b10 g"
b10 ?#
b11 ~
b11 ."
b11 ^"
b11 d"
b11 p"
b11 u"
b11 }"
b110011 o
b110011 N"
b10 (
b10 T
b10 V"
b10 C#
b1 )
b1 U
b1 U"
b1 B#
b11 1
b11 _
b11 S"
b11 ["
b11 >#
b10 M
b10 ("
b10 W"
b1100 j
b1100 P"
b1100 Z"
b10000010 y
b10000010 M"
b10000010 Y"
b10000010 z"
b10000010 (#
b10001010 e
b10001010 "#
b10001010 *#
b1000 m
b1000 O"
b1000 )#
b1000 ""
b1000 +"
b1000 L"
0|
b10100 i
b10100 ;"
b10100 ##
b10100 $#
b10000 l
b10000 8"
b10000 <"
b10000 %#
b10000 '#
b10000 k
b10000 >"
b10000 F"
b1100 n
b1100 ="
b1100 E"
b1000001000001100001000110011 J
b1000001000001100001000110011 0"
b1000001000001100001000110011 ?"
1!
#120
0!
#130
b1010 =
b1010 C
b1010 G
b1010 C"
b100000100000111000101 t
b100000100000111000101 4"
b100000100000111000101 8#
b110 $
b110 A
b110 N
b110 6"
b110 H"
b101 #"
b101 3"
b101 B"
b11000 d
b11000 !#
b11000 &#
b1000001000001000001100110011 K
b1000001000001000001100110011 9"
b1000001000001000001100110011 :"
b10001 !"
b10001 '"
b10001 X"
b10001 ,"
b11111111111111111111111111111011 \
b11111111111111111111111111111011 /"
b11111111111111111111111111111011 h"
b11 a
b11 I"
b11 0#
b1 7
b1 u
b1 y"
b1 E#
b0 8
b0 v
b0 t"
b0 D#
b11 V
b11 s"
b11 x"
b11 .#
b11 7#
b10100 k
b10100 >"
b10100 F"
b10000 n
b10000 ="
b10000 E"
b1000001000001110001010110011 J
b1000001000001110001010110011 0"
b1000001000001110001010110011 ?"
b11000 i
b11000 ;"
b11000 ##
b11000 $#
b10100 l
b10100 8"
b10100 <"
b10100 %#
b10100 '#
b100 1
b100 _
b100 S"
b100 ["
b100 >#
b100 M
b100 ("
b100 W"
b101 b
b101 Q"
b101 q"
b10000 j
b10000 P"
b10000 Z"
b10001110 e
b10001110 "#
b10001110 *#
b1100 m
b1100 O"
b1100 )#
b1001 ""
b1001 +"
b1001 L"
b10000010 x
b10000010 _"
b10000010 e"
b1100 h
b1100 `"
b1100 f"
b11 0
b11 ^
b11 a"
b11 g"
b11 ?#
b11 P
b11 -"
b11 c"
b1011 ~
b1011 ."
b1011 ^"
b1011 d"
b1011 p"
b1011 u"
b1011 }"
b11 w
b11 k"
b11 3#
b10 /
b10 ]
b10 m"
b10 -#
b10 @#
b1000 g
b1000 l"
b1000 4#
b11 }
b11 j"
b11 2#
1!
#140
0!
#150
b1011 =
b1011 C
b1011 G
b1011 C"
b100000100000100000110 t
b100000100000100000110 4"
b100000100000100000110 8#
b0 $
b0 A
b0 N
b0 6"
b0 H"
b110 #"
b110 3"
b110 B"
b1011 V
b1011 s"
b1011 x"
b1011 .#
b1011 7#
b0 7
b0 u
b0 y"
b0 E#
b1010 \
b1010 /"
b1010 h"
b11101 !"
b11101 '"
b11101 X"
b11101 ,"
b11100 d
b11100 !#
b11100 &#
b1101111 K
b1101111 9"
b1101111 :"
b10000010 w
b10000010 k"
b10000010 3#
b11 /
b11 ]
b11 m"
b11 -#
b11 @#
b1100 g
b1100 l"
b1100 4#
b11111111111111111111111111111011 [
b11111111111111111111111111111011 n"
b11111111111111111111111111111011 5#
b1011 }
b1011 j"
b1011 2#
b10000 h
b10000 `"
b10000 f"
b100 0
b100 ^
b100 a"
b100 g"
b100 ?#
b10001 ~
b10001 ."
b10001 ^"
b10001 d"
b10001 p"
b10001 u"
b10001 }"
b101 1
b101 _
b101 S"
b101 ["
b101 >#
b110 M
b110 ("
b110 W"
b11 `
b11 R"
b11 v"
b10100 j
b10100 P"
b10100 Z"
b10010010 e
b10010010 "#
b10010010 *#
b10000 m
b10000 O"
b10000 )#
b1010 ""
b1010 +"
b1010 L"
b11100 i
b11100 ;"
b11100 ##
b11100 $#
b11000 l
b11000 8"
b11000 <"
b11000 %#
b11000 '#
b11000 k
b11000 >"
b11000 F"
b10100 n
b10100 ="
b10100 E"
b1000001000001000001100110011 J
b1000001000001000001100110011 0"
b1000001000001000001100110011 ?"
1!
#160
0!
#170
b0 =
b0 C
b0 G
b0 C"
b0 z
b0 K"
b0 :#
1%
b10 +
b10 F
b10 I
b10 G"
b100 6
b100 E
b100 H
b100 9#
15
1.
b0 a
b0 I"
b0 0#
b0 c
b0 J"
b0 /#
b0 #
b0 @
b0 L
b0 7"
b0 t
b0 4"
b0 8#
b1101111 3
b1101111 B
b1101111 p
b1101111 5"
b1101111 D"
b0 #"
b0 3"
b0 B"
b0 >
b0 $"
b0 2"
b0 A"
b0 ,#
b0 <#
b0 ?
b0 %"
b0 1"
b0 @"
b0 +#
b0 ;#
b100000 d
b100000 !#
b100000 &#
bx K
bx 9"
bx :"
b1000 !"
b1000 '"
b1000 X"
b1000 ,"
b1000001 \
b1000001 /"
b1000001 h"
b10001 V
b10001 s"
b10001 x"
b10001 .#
b10001 7#
b11100 k
b11100 >"
b11100 F"
b11000 n
b11000 ="
b11000 E"
b1101111 J
b1101111 0"
b1101111 ?"
b100000 i
b100000 ;"
b100000 ##
b100000 $#
b11100 l
b11100 8"
b11100 <"
b11100 %#
b11100 '#
b110 1
b110 _
b110 S"
b110 ["
b110 >#
b0 M
b0 ("
b0 W"
b11000 j
b11000 P"
b11000 Z"
b10010110 e
b10010110 "#
b10010110 *#
b10100 m
b10100 O"
b10100 )#
b1011 ""
b1011 +"
b1011 L"
b10100 h
b10100 `"
b10100 f"
b101 0
b101 ^
b101 a"
b101 g"
b101 ?#
b11101 ~
b11101 ."
b11101 ^"
b11101 d"
b11101 p"
b11101 u"
b11101 }"
b100 /
b100 ]
b100 m"
b100 -#
b100 @#
b10000 g
b10000 l"
b10000 4#
b1010 [
b1010 n"
b1010 5#
b10001 }
b10001 j"
b10001 2#
1!
#180
0!
#190
bx z
bx K"
bx :#
0%
b0 6
b0 E
b0 H
b0 9#
b0 +
b0 F
b0 I
b0 G"
05
0.
bx a
bx I"
bx 0#
bx c
bx J"
bx /#
bx #
bx @
bx L
bx 7"
bx t
bx 4"
bx 8#
bx $
bx A
bx N
bx 6"
bx H"
bx 3
bx B
bx p
bx 5"
bx D"
bx #"
bx 3"
bx B"
bx >
bx $"
bx 2"
bx A"
bx ,#
bx <#
bx ?
bx %"
bx 1"
bx @"
bx +#
bx ;#
1:
b1 2
b1 f
b1 =#
b0 R
b0 )"
b0 |"
b0 !"
b0 '"
b0 X"
b0 ,"
b11101 V
b11101 s"
b11101 x"
b11101 .#
b11101 7#
b11111111111111111111111111111011 \
b11111111111111111111111111111011 /"
b11111111111111111111111111111011 h"
b0 Q
b0 ]"
b0 w"
b0 {"
b0 S
b0 *"
b0 r"
b100100 d
b100100 !#
b100100 &#
b101 /
b101 ]
b101 m"
b101 -#
b101 @#
b10100 g
b10100 l"
b10100 4#
b1000001 [
b1000001 n"
b1000001 5#
b11101 }
b11101 j"
b11101 2#
b11000 h
b11000 `"
b11000 f"
b110 0
b110 ^
b110 a"
b110 g"
b110 ?#
b1000 ~
b1000 ."
b1000 ^"
b1000 d"
b1000 p"
b1000 u"
b1000 }"
b1101111 o
b1101111 N"
b0 (
b0 T
b0 V"
b0 C#
b0 )
b0 U
b0 U"
b0 B#
b0 1
b0 _
b0 S"
b0 ["
b0 >#
b0 `
b0 R"
b0 v"
b0 b
b0 Q"
b0 q"
b11100 j
b11100 P"
b11100 Z"
b0 y
b0 M"
b0 Y"
b0 z"
b0 (#
b11000 e
b11000 "#
b11000 *#
b11000 m
b11000 O"
b11000 )#
b0 ""
b0 +"
b0 L"
b10 *
b10 Y
b10 T"
b10 \"
b10 A#
1s
b100100 i
b100100 ;"
b100100 ##
b100100 $#
b100000 l
b100000 8"
b100000 <"
b100000 %#
b100000 '#
b100000 k
b100000 >"
b100000 F"
b11100 n
b11100 ="
b11100 E"
bx J
bx 0"
bx ?"
1!
#200
0!
