risc.vcd
$date
	Tue Jan 20 22:10:22 2026
$end
$version
	Icarus Verilog
$end
$timescale
	1ns
$end
$scope module risc_TB $end
$var reg 1 ! clk $end
$var reg 1 " rst $end
$scope module CPU $end
$var wire 1 ! clk $end
$var wire 1 " rst $end
$var wire 7 # funct7 [6:0] $end
$var wire 3 $ funct3 [2:0] $end
$var wire 1 % WD3_SrcD $end
$var wire 1 & StallF $end
$var wire 1 ' StallD $end
$var wire 5 ( Rs2E [4:0] $end
$var wire 5 ) Rs1E [4:0] $end
$var wire 2 * ResultSrcE [1:0] $end
$var wire 2 + ResultSrcD [1:0] $end
$var wire 1 , RegWriteW $end
$var wire 1 - RegWriteM $end
$var wire 1 . RegWriteD $end
$var wire 5 / RdW [4:0] $end
$var wire 5 0 RdM [4:0] $end
$var wire 5 1 RdE [4:0] $end
$var wire 2 2 PCSrcE [1:0] $end
$var wire 7 3 OP [6:0] $end
$var wire 1 4 MemWriteD $end
$var wire 1 5 JumpD $end
$var wire 3 6 Imm_SrcD [2:0] $end
$var wire 2 7 ForwardBE [1:0] $end
$var wire 2 8 ForwardAE [1:0] $end
$var wire 1 9 FlushE $end
$var wire 1 : FlushD $end
$var wire 1 ; BranchD $end
$var wire 1 < ALUSrcD $end
$var wire 4 = ALUControlD [3:0] $end
$var wire 5 > A2 [4:0] $end
$var wire 5 ? A1 [4:0] $end
$scope module CU $end
$var wire 7 @ funct7 [6:0] $end
$var wire 3 A funct3 [2:0] $end
$var wire 7 B OP [6:0] $end
$var reg 4 C ALUControlD [3:0] $end
$var reg 2 D ALUOp [1:0] $end
$var reg 1 < ALUSrcD $end
$var reg 1 ; BranchD $end
$var reg 3 E Imm_SrcD [2:0] $end
$var reg 1 5 JumpD $end
$var reg 1 4 MemWriteD $end
$var reg 1 . RegWriteD $end
$var reg 2 F ResultSrcD [1:0] $end
$var reg 1 % WD3_SrcD $end
$upscope $end
$scope module DP $end
$var wire 4 G ALUControlD [3:0] $end
$var wire 1 < ALUSrcD $end
$var wire 1 ; BranchD $end
$var wire 3 H Imm_SrcD [2:0] $end
$var wire 1 5 JumpD $end
$var wire 1 4 MemWriteD $end
$var wire 1 . RegWriteD $end
$var wire 2 I ResultSrcD [1:0] $end
$var wire 1 % WD3_SrcD $end
$var wire 1 ! clk $end
$var wire 1 " rst $end
$var wire 32 J instructionD [31:0] $end
$var wire 32 K instruction [31:0] $end
$var wire 7 L funct7 [6:0] $end
$var wire 3 M funct3E [2:0] $end
$var wire 3 N funct3 [2:0] $end
$var wire 1 O ZeroE $end
$var wire 64 P WriteDataM [63:0] $end
$var wire 64 Q WriteDataE [63:0] $end
$var wire 1 & StallF $end
$var wire 1 ' StallD $end
$var wire 64 R SrcBE [63:0] $end
$var wire 64 S SrcAE [63:0] $end
$var wire 5 T Rs2E [4:0] $end
$var wire 5 U Rs1E [4:0] $end
$var wire 64 V ResultW [63:0] $end
$var wire 2 W ResultSrcW [1:0] $end
$var wire 2 X ResultSrcM [1:0] $end
$var wire 2 Y ResultSrcE [1:0] $end
$var wire 1 , RegWriteW $end
$var wire 1 - RegWriteM $end
$var wire 1 Z RegWriteE $end
$var wire 64 [ ReadDataW [63:0] $end
$var wire 64 \ ReadData [63:0] $end
$var wire 5 ] RdW [4:0] $end
$var wire 5 ^ RdM [4:0] $end
$var wire 5 _ RdE [4:0] $end
$var wire 64 ` RD2E [63:0] $end
$var wire 64 a RD2 [63:0] $end
$var wire 64 b RD1E [63:0] $end
$var wire 64 c RD1 [63:0] $end
$var wire 64 d PCnext [63:0] $end
$var wire 64 e PCTargetE [63:0] $end
$var wire 2 f PCSrcE [1:0] $end
$var wire 64 g PCPlus4W [63:0] $end
$var wire 64 h PCPlus4M [63:0] $end
$var wire 64 i PCPlus4F [63:0] $end
$var wire 64 j PCPlus4E [63:0] $end
$var wire 64 k PCPlus4D [63:0] $end
$var wire 64 l PCF [63:0] $end
$var wire 64 m PCE [63:0] $end
$var wire 64 n PCD [63:0] $end
$var wire 7 o OPE [6:0] $end
$var wire 7 p OP [6:0] $end
$var wire 1 q MemWriteM $end
$var wire 1 r MemWriteE $end
$var wire 1 s JumpE $end
$var wire 25 t Imm [24:0] $end
$var wire 2 u ForwardBE [1:0] $end
$var wire 2 v ForwardAE [1:0] $end
$var wire 1 9 FlushE $end
$var wire 1 : FlushD $end
$var wire 64 w ExtImmW [63:0] $end
$var wire 64 x ExtImmM [63:0] $end
$var wire 64 y ExtImmE [63:0] $end
$var wire 64 z ExtImmD [63:0] $end
$var wire 1 { BranchE $end
$var wire 1 | ALUSrcE $end
$var wire 64 } ALUResultW [63:0] $end
$var wire 64 ~ ALUResultM [63:0] $end
$var wire 64 !" ALUResult [63:0] $end
$var wire 4 "" ALUControlE [3:0] $end
$var wire 5 #" A3 [4:0] $end
$var wire 5 $" A2 [4:0] $end
$var wire 5 %" A1 [4:0] $end
$scope module aluuuu $end
$var wire 64 &" ALUResult [63:0] $end
$var wire 3 '" funct3E [2:0] $end
$var wire 64 (" SrcBE [63:0] $end
$var wire 64 )" SrcAE [63:0] $end
$var wire 4 *" ALUControlE [3:0] $end
$var reg 64 +" ALU_Result [63:0] $end
$var reg 1 O ZeroE $end
$upscope $end
$scope module datameme $end
$var wire 1 ! clk $end
$var wire 1 " rst $end
$var wire 1 q WE $end
$var wire 64 ," WD [63:0] $end
$var wire 64 -" A [63:0] $end
$var reg 64 ." ReadData [63:0] $end
$var integer 32 /" i [31:0] $end
$upscope $end
$scope module fetch $end
$var wire 32 0" instructionD [31:0] $end
$var reg 5 1" A1 [4:0] $end
$var reg 5 2" A2 [4:0] $end
$var reg 5 3" A3 [4:0] $end
$var reg 25 4" Imm [24:0] $end
$var reg 7 5" OP [6:0] $end
$var reg 3 6" funct3 [2:0] $end
$var reg 7 7" funct7 [6:0] $end
$upscope $end
$scope module instmeme $end
$var wire 64 8" PCF [63:0] $end
$var reg 32 9" instruction [31:0] $end
$upscope $end
$scope module lay1 $end
$var wire 1 ! clk $end
$var wire 32 :" instruction [31:0] $end
$var wire 1 " rst $end
$var wire 1 ' StallD $end
$var wire 64 ;" PCPlus4F [63:0] $end
$var wire 64 <" PCF [63:0] $end
$var wire 1 : FlushD $end
$var reg 64 =" PCD [63:0] $end
$var reg 64 >" PCPlus4D [63:0] $end
$var reg 32 ?" instructionD [31:0] $end
$upscope $end
$scope module lay2 $end
$var wire 5 @" A1 [4:0] $end
$var wire 5 A" A2 [4:0] $end
$var wire 5 B" A3 [4:0] $end
$var wire 4 C" ALUControlD [3:0] $end
$var wire 1 < ALUSrcD $end
$var wire 1 ; BranchD $end
$var wire 1 5 JumpD $end
$var wire 1 4 MemWriteD $end
$var wire 7 D" OPD [6:0] $end
$var wire 64 E" PCD [63:0] $end
$var wire 64 F" PCPlus4D [63:0] $end
$var wire 1 . RegWriteD $end
$var wire 2 G" ResultSrcD [1:0] $end
$var wire 1 O ZeroE $end
$var wire 1 ! clk $end
$var wire 3 H" funct3 [2:0] $end
$var wire 1 " rst $end
$var wire 64 I" RD2 [63:0] $end
$var wire 64 J" RD1 [63:0] $end
$var wire 1 9 FlushE $end
$var wire 64 K" ExtImmD [63:0] $end
$var reg 4 L" ALUControlE [3:0] $end
$var reg 1 | ALUSrcE $end
$var reg 1 { BranchE $end
$var reg 64 M" ExtImmE [63:0] $end
$var reg 1 s JumpE $end
$var reg 1 r MemWriteE $end
$var reg 7 N" OPE [6:0] $end
$var reg 64 O" PCE [63:0] $end
$var reg 64 P" PCPlus4E [63:0] $end
$var reg 2 Q" PCSrcE [1:0] $end
$var reg 64 R" RD1E [63:0] $end
$var reg 64 S" RD2E [63:0] $end
$var reg 5 T" RdE [4:0] $end
$var reg 1 Z RegWriteE $end
$var reg 2 U" ResultSrcE [1:0] $end
$var reg 5 V" Rs1E [4:0] $end
$var reg 5 W" Rs2E [4:0] $end
$var reg 3 X" funct3E [2:0] $end
$upscope $end
$scope module lay3 $end
$var wire 64 Y" ALUResult [63:0] $end
$var wire 64 Z" ExtImmE [63:0] $end
$var wire 1 r MemWriteE $end
$var wire 64 [" PCPlus4E [63:0] $end
$var wire 5 \" RdE [4:0] $end
$var wire 1 Z RegWriteE $end
$var wire 2 ]" ResultSrcE [1:0] $end
$var wire 1 ! clk $end
$var wire 1 " rst $end
$var wire 64 ^" WriteDataE [63:0] $end
$var reg 64 _" ALUResultM [63:0] $end
$var reg 64 `" ExtImmM [63:0] $end
$var reg 1 q MemWriteM $end
$var reg 64 a" PCPlus4M [63:0] $end
$var reg 5 b" RdM [4:0] $end
$var reg 1 - RegWriteM $end
$var reg 2 c" ResultSrcM [1:0] $end
$var reg 64 d" WriteDataM [63:0] $end
$upscope $end
$scope module lay4 $end
$var wire 64 e" ALUResultM [63:0] $end
$var wire 64 f" ExtImmM [63:0] $end
$var wire 64 g" PCPlus4M [63:0] $end
$var wire 5 h" RdM [4:0] $end
$var wire 64 i" ReadData [63:0] $end
$var wire 1 - RegWriteM $end
$var wire 2 j" ResultSrcM [1:0] $end
$var wire 1 ! clk $end
$var wire 1 " rst $end
$var reg 64 k" ALUResultW [63:0] $end
$var reg 64 l" ExtImmW [63:0] $end
$var reg 64 m" PCPlus4W [63:0] $end
$var reg 5 n" RdW [4:0] $end
$var reg 64 o" ReadDataW [63:0] $end
$var reg 1 , RegWriteW $end
$var reg 2 p" ResultSrcW [1:0] $end
$upscope $end
$scope module muxa $end
$var wire 64 q" ALUResultM [63:0] $end
$var wire 64 r" RD1E [63:0] $end
$var wire 64 s" SrcAE [63:0] $end
$var wire 64 t" ResultW [63:0] $end
$var wire 2 u" ForwardAE [1:0] $end
$upscope $end
$scope module muxb1 $end
$var wire 64 v" ALUResultM [63:0] $end
$var wire 64 w" RD2E [63:0] $end
$var wire 64 x" WriteDataE [63:0] $end
$var wire 64 y" ResultW [63:0] $end
$var wire 2 z" ForwardBE [1:0] $end
$upscope $end
$scope module muxb2 $end
$var wire 1 | ALUSrcE $end
$var wire 64 {" ExtImmE [63:0] $end
$var wire 64 |" WriteDataE [63:0] $end
$var wire 64 }" SrcBE [63:0] $end
$upscope $end
$scope module muxpc $end
$var wire 64 ~" ALUResultM [63:0] $end
$var wire 2 !# PCSrcE [1:0] $end
$var wire 64 "# PCnext [63:0] $end
$var wire 64 ## PCTargetE [63:0] $end
$var wire 64 $# PCPlus4F [63:0] $end
$upscope $end
$scope module pc4add $end
$var wire 64 %# PCPlus4F [63:0] $end
$var wire 64 &# PCF [63:0] $end
$upscope $end
$scope module pcgen $end
$var wire 64 '# PCnext [63:0] $end
$var wire 1 ! clk $end
$var wire 1 " rst $end
$var wire 1 & StallF $end
$var reg 64 (# PCF [63:0] $end
$upscope $end
$scope module pcimmadd $end
$var wire 64 )# ExtImmE [63:0] $end
$var wire 64 *# PCE [63:0] $end
$var wire 64 +# PCTargetE [63:0] $end
$upscope $end
$scope module regf $end
$var wire 5 ,# A1 [4:0] $end
$var wire 5 -# A2 [4:0] $end
$var wire 5 .# A3 [4:0] $end
$var wire 1 , WE3 $end
$var wire 1 ! clk $end
$var wire 1 " rst $end
$var wire 64 /# WD3 [63:0] $end
$var reg 64 0# RD1 [63:0] $end
$var reg 64 1# RD2 [63:0] $end
$var integer 32 2# i [31:0] $end
$upscope $end
$scope module resmux $end
$var wire 64 3# ALUResultW [63:0] $end
$var wire 64 4# ExtImmW [63:0] $end
$var wire 64 5# PCPlus4W [63:0] $end
$var wire 64 6# ReadDataW [63:0] $end
$var wire 2 7# ResultSrcW [1:0] $end
$var wire 64 8# ResultW [63:0] $end
$upscope $end
$scope module siext $end
$var wire 25 9# Imm [24:0] $end
$var wire 3 :# Imm_SrcD [2:0] $end
$var reg 64 ;# ExtImmD [63:0] $end
$upscope $end
$upscope $end
$scope module HU $end
$var wire 5 <# A1 [4:0] $end
$var wire 5 =# A2 [4:0] $end
$var wire 2 ># PCSrcE [1:0] $end
$var wire 5 ?# RdE [4:0] $end
$var wire 5 @# RdM [4:0] $end
$var wire 5 A# RdW [4:0] $end
$var wire 1 - RegWriteM $end
$var wire 1 , RegWriteW $end
$var wire 2 B# ResultSrcE [1:0] $end
$var wire 5 C# Rs1E [4:0] $end
$var wire 5 D# Rs2E [4:0] $end
$var wire 1 ! clk $end
$var reg 1 : FlushD $end
$var reg 1 9 FlushE $end
$var reg 2 E# ForwardAE [1:0] $end
$var reg 2 F# ForwardBE [1:0] $end
$var reg 1 ' StallD $end
$var reg 1 & StallF $end
$var reg 1 G# lwStall $end
$upscope $end
$upscope $end
$scope task check_reg $end
$var reg 64 H# actual [63:0] $end
$var reg 64 I# expected [63:0] $end
$var integer 32 J# regnum [31:0] $end
$upscope $end
$upscope $end
$enddefinitions $end
$comment Show the parameter values. $end
$dumpall
$end
#0
$dumpvars
b0 J#
bx I#
bx H#
xG#
bx F#
bx E#
bx D#
bx C#
bx B#
bx A#
bx @#
bx ?#
bx >#
bx =#
bx <#
bx ;#
bx :#
bx 9#
bx 8#
bx 7#
bx 6#
bx 5#
bx 4#
bx 3#
bx 2#
bx 1#
bx 0#
bx /#
bx .#
bx -#
bx ,#
bx +#
bx *#
bx )#
bx (#
bx '#
bx &#
bx %#
bx $#
bx ##
bx "#
bx !#
bx ~"
bx }"
bx |"
bx {"
bx z"
bx y"
bx x"
bx w"
bx v"
bx u"
bx t"
bx s"
bx r"
bx q"
bx p"
bx o"
bx n"
bx m"
bx l"
bx k"
bx j"
bx i"
bx h"
bx g"
bx f"
bx e"
bx d"
bx c"
bx b"
bx a"
bx `"
bx _"
bx ^"
bx ]"
bx \"
bx ["
bx Z"
bx Y"
bx X"
bx W"
bx V"
bx U"
bx T"
bx S"
bx R"
bx Q"
bx P"
bx O"
bx N"
bx M"
bx L"
bx K"
bx J"
bx I"
bx H"
bx G"
bx F"
bx E"
bx D"
bx C"
bx B"
bx A"
bx @"
bx ?"
bx >"
bx ="
bx <"
bx ;"
bx :"
bx 9"
bx 8"
bx 7"
bx 6"
bx 5"
bx 4"
bx 3"
bx 2"
bx 1"
bx 0"
bx /"
bx ."
bx -"
bx ,"
bx +"
bx *"
bx )"
bx ("
bx '"
bx &"
bx %"
bx $"
bx #"
bx ""
bx !"
bx ~
bx }
x|
x{
bx z
bx y
bx x
bx w
bx v
bx u
bx t
xs
xr
xq
bx p
bx o
bx n
bx m
bx l
bx k
bx j
bx i
bx h
bx g
bx f
bx e
bx d
bx c
bx b
bx a
bx `
bx _
bx ^
bx ]
bx \
bx [
xZ
bx Y
bx X
bx W
bx V
bx U
bx T
bx S
bx R
bx Q
bx P
xO
bx N
bx M
bx L
bx K
bx J
bx I
bx H
bx G
bx F
bx E
bx D
bx C
bx B
bx A
bx @
bx ?
bx >
bx =
x<
x;
x:
x9
bx 8
bx 7
bx 6
x5
x4
bx 3
bx 2
bx 1
bx 0
bx /
x.
x-
x,
bx +
bx *
bx )
bx (
x'
x&
x%
bx $
bx #
1"
0!
$end
#10
b0 z
b0 K"
b0 ;#
b0 =
b0 C
b0 G
b0 C"
b0 D
0%
b0 6
b0 E
b0 H
b0 :#
b0 +
b0 F
b0 I
b0 G"
0<
05
0;
04
0.
b0 a
b0 I"
b0 1#
b0 c
b0 J"
b0 0#
b0 #
b0 @
b0 L
b0 7"
b0 t
b0 4"
b0 9#
b0 $
b0 A
b0 N
b0 6"
b0 H"
b0 3
b0 B
b0 p
b0 5"
b0 D"
b0 #"
b0 3"
b0 B"
b0 >
b0 $"
b0 2"
b0 A"
b0 -#
b0 =#
b0 ?
b0 %"
b0 1"
b0 @"
b0 ,#
b0 <#
b0 !"
b0 &"
b0 Y"
b0 +"
1O
b0 R
b0 ("
b0 }"
b1110110011 K
b1110110011 9"
b1110110011 :"
b0 Q
b0 ^"
b0 x"
b0 |"
b0 S
b0 )"
b0 s"
b100 d
b100 "#
b100 '#
0:
0&
09
0'
0G#
b0 \
b0 ."
b0 i"
b0 7
b0 u
b0 z"
b0 F#
b0 8
b0 v
b0 u"
b0 E#
b0 V
b0 t"
b0 y"
b0 /#
b0 8#
b0 k
b0 >"
b0 F"
b0 J
b0 0"
b0 ?"
b0 n
b0 ="
b0 E"
b100 i
b100 ;"
b100 $#
b100 %#
b0 l
b0 8"
b0 <"
b0 &#
b0 (#
b0 o
b0 N"
b0 (
b0 T
b0 W"
b0 D#
b0 )
b0 U
b0 V"
b0 C#
b0 1
b0 _
b0 T"
b0 \"
b0 ?#
b0 M
b0 '"
b0 X"
b0 `
b0 S"
b0 w"
b0 b
b0 R"
b0 r"
b0 j
b0 P"
b0 ["
b0 e
b0 ##
b0 +#
b0 y
b0 M"
b0 Z"
b0 {"
b0 )#
b0 m
b0 O"
b0 *#
b0 ""
b0 *"
b0 L"
b0 *
b0 Y
b0 U"
b0 ]"
b0 B#
0|
b0 2
b0 f
b0 Q"
b0 !#
b0 >#
0{
0s
0r
0Z
b0 x
b0 `"
b0 f"
b0 h
b0 a"
b0 g"
b0 0
b0 ^
b0 b"
b0 h"
b0 @#
b0 P
b0 ,"
b0 d"
b0 ~
b0 -"
b0 _"
b0 e"
b0 q"
b0 v"
b0 ~"
b0 X
b0 c"
b0 j"
0q
0-
b0 w
b0 l"
b0 4#
0,
b0 W
b0 p"
b0 7#
b0 /
b0 ]
b0 n"
b0 .#
b0 A#
b0 g
b0 m"
b0 5#
b0 [
b0 o"
b0 6#
b0 }
b0 k"
b0 3#
b100000 2#
b1111101000 /"
1!
#20
0!
#30
b1111101000 /"
b100000 2#
1!
#40
0!
#50
1.
b111 t
b111 4"
b111 9#
b110011 3
b110011 B
b110011 p
b110011 5"
b110011 D"
b111 #"
b111 3"
b111 B"
b1000 d
b1000 "#
b1000 '#
b101000000000001100010011 K
b101000000000001100010011 9"
b101000000000001100010011 :"
b100 k
b100 >"
b100 F"
b1110110011 J
b1110110011 0"
b1110110011 ?"
b1000 i
b1000 ;"
b1000 $#
b1000 %#
b100 l
b100 8"
b100 <"
b100 &#
b100 (#
1!
0"
#60
0!
#70
b1010 z
b1010 K"
b1010 ;#
b1 D
1<
1.
b10100000000000110 t
b10100000000000110 4"
b10100000000000110 9#
b10011 3
b10011 B
b10011 p
b10011 5"
b10011 D"
b110 #"
b110 3"
b110 B"
b1010 >
b1010 $"
b1010 2"
b1010 A"
b1010 -#
b1010 =#
b1100 d
b1100 "#
b1100 '#
b11000110011 K
b11000110011 9"
b11000110011 :"
b110011 o
b110011 N"
b111 1
b111 _
b111 T"
b111 \"
b111 ?#
b100 j
b100 P"
b100 ["
1Z
b1100 i
b1100 ;"
b1100 $#
b1100 %#
b1000 l
b1000 8"
b1000 <"
b1000 &#
b1000 (#
b1000 k
b1000 >"
b1000 F"
b100 n
b100 ="
b100 E"
b101000000000001100010011 J
b101000000000001100010011 0"
b101000000000001100010011 ?"
1!
#80
0!
#90
b0 z
b0 K"
b0 ;#
b0 D
0<
1.
b1100 t
b1100 4"
b1100 9#
b110011 3
b110011 B
b110011 p
b110011 5"
b110011 D"
b1100 #"
b1100 3"
b1100 B"
b0 >
b0 $"
b0 2"
b0 A"
b0 -#
b0 =#
b1010 !"
b1010 &"
b1010 Y"
b1010 +"
0O
b10000 d
b10000 "#
b10000 '#
b10011000111000010001100011 K
b10011000111000010001100011 9"
b10011000111000010001100011 :"
b1010 R
b1010 ("
b1010 }"
b1100 k
b1100 >"
b1100 F"
b1000 n
b1000 ="
b1000 E"
b11000110011 J
b11000110011 0"
b11000110011 ?"
b10000 i
b10000 ;"
b10000 $#
b10000 %#
b1100 l
b1100 8"
b1100 <"
b1100 &#
b1100 (#
b10011 o
b10011 N"
b1010 (
b1010 T
b1010 W"
b1010 D#
b110 1
b110 _
b110 T"
b110 \"
b110 ?#
b1000 j
b1000 P"
b1000 ["
b1010 y
b1010 M"
b1010 Z"
b1010 {"
b1010 )#
b1110 e
b1110 ##
b1110 +#
b100 m
b100 O"
b100 *#
1|
b100 h
b100 a"
b100 g"
b111 0
b111 ^
b111 b"
b111 h"
b111 @#
1-
1!
#100
0!
#110
b101000 z
b101000 K"
b101000 ;#
b10 D
b10 6
b10 E
b10 H
b10 :#
1;
0.
b1 #
b1 @
b1 L
b1 7"
b1001100011100001000 t
b1001100011100001000 4"
b1001100011100001000 9#
b1100011 3
b1100011 B
b1100011 p
b1100011 5"
b1100011 D"
b1000 #"
b1000 3"
b1000 B"
b110 >
b110 $"
b110 2"
b110 A"
b110 -#
b110 =#
b111 ?
b111 %"
b111 1"
b111 @"
b111 ,#
b111 <#
b0 !"
b0 &"
b0 Y"
b0 +"
1O
b0 R
b0 ("
b0 }"
b10100 d
b10100 "#
b10100 '#
b11100111000010000110011 K
b11100111000010000110011 9"
b11100111000010000110011 :"
1,
b111 /
b111 ]
b111 n"
b111 .#
b111 A#
b100 g
b100 m"
b100 5#
b1010 x
b1010 `"
b1010 f"
b1000 h
b1000 a"
b1000 g"
b110 0
b110 ^
b110 b"
b110 h"
b110 @#
b1010 ~
b1010 -"
b1010 _"
b1010 e"
b1010 q"
b1010 v"
b1010 ~"
b110011 o
b110011 N"
b0 (
b0 T
b0 W"
b0 D#
b1100 1
b1100 _
b1100 T"
b1100 \"
b1100 ?#
b1100 j
b1100 P"
b1100 ["
b0 y
b0 M"
b0 Z"
b0 {"
b0 )#
b1000 e
b1000 ##
b1000 +#
b1000 m
b1000 O"
b1000 *#
0|
b10100 i
b10100 ;"
b10100 $#
b10100 %#
b10000 l
b10000 8"
b10000 <"
b10000 &#
b10000 (#
b10000 k
b10000 >"
b10000 F"
b1100 n
b1100 ="
b1100 E"
b10011000111000010001100011 J
b10011000111000010001100011 0"
b10011000111000010001100011 ?"
1!
#120
0!
#130
b111 z
b111 K"
b111 ;#
1.
b0 D
b0 6
b0 E
b0 H
b0 :#
0;
b0 #
b0 @
b0 L
b0 7"
b1110011100001000 t
b1110011100001000 4"
b1110011100001000 9#
b110011 3
b110011 B
b110011 p
b110011 5"
b110011 D"
b111 >
b111 $"
b111 2"
b111 A"
b111 -#
b111 =#
b1010 !"
b1010 &"
b1010 Y"
b1010 +"
0O
b1010 R
b1010 ("
b1010 }"
b1010 Q
b1010 ^"
b1010 x"
b1010 |"
b11000 d
b11000 "#
b11000 '#
b11101000000010000110011 K
b11101000000010000110011 9"
b11101000000010000110011 :"
0:
09
b0 2
b0 f
b0 Q"
b0 !#
b0 >#
b1 7
b1 u
b1 z"
b1 F#
b1010 V
b1010 t"
b1010 y"
b1010 /#
b1010 8#
b10100 k
b10100 >"
b10100 F"
b10000 n
b10000 ="
b10000 E"
b11100111000010000110011 J
b11100111000010000110011 0"
b11100111000010000110011 ?"
b11000 i
b11000 ;"
b11000 $#
b11000 %#
b10100 l
b10100 8"
b10100 <"
b10100 &#
b10100 (#
b1100011 o
b1100011 N"
b110 (
b110 T
b110 W"
b110 D#
b111 )
b111 U
b111 V"
b111 C#
b1000 1
b1000 _
b1000 T"
b1000 \"
b1000 ?#
b10000 j
b10000 P"
b10000 ["
b101000 y
b101000 M"
b101000 Z"
b101000 {"
b101000 )#
b110100 e
b110100 ##
b110100 +#
b1100 m
b1100 O"
b1100 *#
1{
0Z
b0 x
b0 `"
b0 f"
b1100 h
b1100 a"
b1100 g"
b1100 0
b1100 ^
b1100 b"
b1100 h"
b1100 @#
b0 ~
b0 -"
b0 _"
b0 e"
b0 q"
b0 v"
b0 ~"
b1010 w
b1010 l"
b1010 4#
b110 /
b110 ]
b110 n"
b110 .#
b110 A#
b1000 g
b1000 m"
b1000 5#
b1010 }
b1010 k"
b1010 3#
1!
#140
0!
#150
b1110100000001000 t
b1110100000001000 4"
b1110100000001000 9#
b1000 ?
b1000 %"
b1000 1"
b1000 @"
b1000 ,#
b1000 <#
b0 !"
b0 &"
b0 Y"
b0 +"
1O
b0 R
b0 ("
b0 }"
b0 Q
b0 ^"
b0 x"
b0 |"
b0 V
b0 t"
b0 y"
b0 /#
b0 8#
b0 7
b0 u
b0 z"
b0 F#
b11100 d
b11100 "#
b11100 '#
b0 w
b0 l"
b0 4#
b1100 /
b1100 ]
b1100 n"
b1100 .#
b1100 A#
b1100 g
b1100 m"
b1100 5#
b0 }
b0 k"
b0 3#
b101000 x
b101000 `"
b101000 f"
b10000 h
b10000 a"
b10000 g"
b1000 0
b1000 ^
b1000 b"
b1000 h"
b1000 @#
b1010 P
b1010 ,"
b1010 d"
b1010 ~
b1010 -"
b1010 _"
b1010 e"
b1010 q"
b1010 v"
b1010 ~"
0-
b110011 o
b110011 N"
b111 (
b111 T
b111 W"
b111 D#
b10100 j
b10100 P"
b10100 ["
b111 y
b111 M"
b111 Z"
b111 {"
b111 )#
b10111 e
b10111 ##
b10111 +#
b10000 m
b10000 O"
b10000 *#
0{
1Z
b11100 i
b11100 ;"
b11100 $#
b11100 %#
b11000 l
b11000 8"
b11000 <"
b11000 &#
b11000 (#
b11000 k
b11000 >"
b11000 F"
b10100 n
b10100 ="
b10100 E"
b11101000000010000110011 J
b11101000000010000110011 0"
b11101000000010000110011 ?"
1!
#160
0!
#170
b100000 d
b100000 "#
b100000 '#
b1000010010110000011 K
b1000010010110000011 9"
b1000010010110000011 :"
b10 8
b10 v
b10 u"
b10 E#
b1010 V
b1010 t"
b1010 y"
b1010 /#
b1010 8#
b11100 k
b11100 >"
b11100 F"
b11000 n
b11000 ="
b11000 E"
b100000 i
b100000 ;"
b100000 $#
b100000 %#
b11100 l
b11100 8"
b11100 <"
b11100 &#
b11100 (#
b1000 )
b1000 U
b1000 V"
b1000 C#
b11000 j
b11000 P"
b11000 ["
b11011 e
b11011 ##
b11011 +#
b10100 m
b10100 O"
b10100 *#
b111 x
b111 `"
b111 f"
b10100 h
b10100 a"
b10100 g"
b0 P
b0 ,"
b0 d"
b0 ~
b0 -"
b0 _"
b0 e"
b0 q"
b0 v"
b0 ~"
1-
b101000 w
b101000 l"
b101000 4#
0,
b1000 /
b1000 ]
b1000 n"
b1000 .#
b1000 A#
b10000 g
b10000 m"
b10000 5#
b1010 }
b1010 k"
b1010 3#
1!
#180
0!
#190
b0 z
b0 K"
b0 ;#
b10 D
b1 +
b1 F
b1 I
b1 G"
1<
1.
b100001001011 t
b100001001011 4"
b100001001011 9#
b10 $
b10 A
b10 N
b10 6"
b10 H"
b11 3
b11 B
b11 p
b11 5"
b11 D"
b1011 #"
b1011 3"
b1011 B"
b0 >
b0 $"
b0 2"
b0 A"
b0 -#
b0 =#
b0 V
b0 t"
b0 y"
b0 /#
b0 8#
b100100 d
b100100 "#
b100100 '#
b101101100010010010110011 K
b101101100010010010110011 9"
b101101100010010010110011 :"
b111 w
b111 l"
b111 4#
1,
b10100 g
b10100 m"
b10100 5#
b0 }
b0 k"
b0 3#
b11000 h
b11000 a"
b11000 g"
b11100 j
b11100 P"
b11100 ["
b11111 e
b11111 ##
b11111 +#
b11000 m
b11000 O"
b11000 *#
b100100 i
b100100 ;"
b100100 $#
b100100 %#
b100000 l
b100000 8"
b100000 <"
b100000 &#
b100000 (#
b100000 k
b100000 >"
b100000 F"
b11100 n
b11100 ="
b11100 E"
b1000010010110000011 J
b1000010010110000011 0"
b1000010010110000011 ?"
1!
#200
0!
#210
b100 =
b100 C
b100 G
b100 C"
b1011 z
b1011 K"
b1011 ;#
b0 D
b0 +
b0 F
b0 I
b0 G"
0<
1.
1&
19
1'
1G#
b10110110001001001 t
b10110110001001001 4"
b10110110001001001 9#
b110011 3
b110011 B
b110011 p
b110011 5"
b110011 D"
b1001 #"
b1001 3"
b1001 B"
b1011 >
b1011 $"
b1011 2"
b1011 A"
b1011 -#
b1011 =#
b1100 ?
b1100 %"
b1100 1"
b1100 @"
b1100 ,#
b1100 <#
b101000 d
b101000 "#
b101000 '#
b1001000010001100011 K
b1001000010001100011 9"
b1001000010001100011 :"
0O
b100100 k
b100100 >"
b100100 F"
b100000 n
b100000 ="
b100000 E"
b101101100010010010110011 J
b101101100010010010110011 0"
b101101100010010010110011 ?"
b101000 i
b101000 ;"
b101000 $#
b101000 %#
b100100 l
b100100 8"
b100100 <"
b100100 &#
b100100 (#
b11 o
b11 N"
b0 (
b0 T
b0 W"
b0 D#
b1011 1
b1011 _
b1011 T"
b1011 \"
b1011 ?#
b10 M
b10 '"
b10 X"
b100000 j
b100000 P"
b100000 ["
b0 y
b0 M"
b0 Z"
b0 {"
b0 )#
b11100 e
b11100 ##
b11100 +#
b11100 m
b11100 O"
b11100 *#
b1 *
b1 Y
b1 U"
b1 ]"
b1 B#
1|
b11100 h
b11100 a"
b11100 g"
b11000 g
b11000 m"
b11000 5#
1!
#220
0!
#230
b0 8
b0 v
b0 u"
b0 E#
1O
0&
09
0'
0G#
b11100 g
b11100 m"
b11100 5#
b0 x
b0 `"
b0 f"
b100000 h
b100000 a"
b100000 g"
b1011 0
b1011 ^
b1011 b"
b1011 h"
b1011 @#
b1 X
b1 c"
b1 j"
b0 o
b0 N"
b0 )
b0 U
b0 V"
b0 C#
b0 1
b0 _
b0 T"
b0 \"
b0 ?#
b0 M
b0 '"
b0 X"
b0 j
b0 P"
b0 ["
b0 e
b0 ##
b0 +#
b0 m
b0 O"
b0 *#
b0 *
b0 Y
b0 U"
b0 ]"
b0 B#
0|
0Z
1!
#240
0!
